{
  "type": "service_account",
  "project_id": "voicebot-286620",
  "private_key_id": "56237be15d96c4b5a68c9ef0c8c64bd01e51bd90",
  "private_key": "-----BEGIN PRIVATE KEY-----\nMIIEvQIBADANBgkqhkiG9w0BAQEFAASCBKcwggSjAgEAAoIBAQCRgd8DRs+v8ZEv\niJCK1dQAWtWvGxwm82MQamcPYfVBIWaShSsWFEeku7gYDYvwbZoEj4Zbj/305eCV\nEuKhnjV9dyt0mxJFCPTbYRuRQeX+ph455bi7S3++Uq1OZRvOFoWrXNFU3/bDULJN\n1VfsSLtzzu9eRzAxZrx7JpL18GFR6JF5w/JxauRyOO535RzkfsihBCsGD6gtGu3x\ncIqO577awipDL6ditMfAuovhDIElFWTD2y63gYzAIl5Flqh2HqFvRnweQXh/VUwH\naYIUqBVC2TAB3NymSTw9kc8uYJMjBsJbl9Nir6JOhXnYv7I1Da49p51bqNHmWvzx\nqymFxbmlAgMBAAECggEABeJ9PPovqxt3djctNVg5hzwlOTw88rxULNVIzr/09cne\nhp15JR7z2M84vkxJ9RLRsE6HrgtQR4fGgfDuFoA6BJV9ve0Jm54lnPu77C+AmEBq\np4fJZVXD2FQqqyl+quKRTGFoG+kk5zhLxccTk7xLTH85ghQZ+F2B0O858VVj8jaI\nkPekUoUNEZSFjWbhqJbdm2awPEIz8M/O6CrsP+whFf+eSlwZiPAWMq8OzecBDle3\nRJUq0In1liE2X3gLblmSr008xBg1GlgjbpJdyEVcyYbESdmSmfVAz1SESMIcgzAc\nEVw6H0U6Y8/Th8OVmNLQPZL5u7UL3rjny9bTpbZ9fwKBgQDHe55bbG149re0Sf/r\nEdZlfmNBTYzmOm7F+X1kT9tJcNV4hPX8EsNj30iTLCZAxaTz66AqEjuIxnLHQPrB\nV0JtWCxBMigbfRx2ucFCsAi8/Kubwyy8lumNN/OiTHeMbt7iQOZpr1YjnCrNjfSD\nmaTEtt5fEqkqZJQ3jfl7/K13iwKBgQC6u281Wxuw3dH1wXwB0pttAm/h82K4YnI7\nYnOqGbrkL1+/gjU8hmfKegaRzG++uLTQDJYPWMBUOrUYVBtba3O+K+A5WEcHeihv\nbv+r8SPzf3K0NBO1qwkRoLPlYfHKEUCf+XBpmq+69lRcpg5Si7krKtDYCB1Mcvjl\nrHWaXAY5jwKBgEu3DQ0wY4DVTDbfG4byt0jApxXDRKaiKSd1ofVwJhCDBlN/TAqI\naKdAucA6sq5FFm4K0jkFwJkSkcA1VrgJ0cnE/M8mJXkBjMs3iDYysK5izRQLCbDv\nKuiSAyRoF7wy3OBNt+cHSQ+tF8X7ioJkz9hmfJLjd1gC4wsPFVHNP14vAoGBAJD3\nuOOEYuARpdIULzC/D5k2niOdr1OUYjjGOyOgrB5AxSXJcYkWk3d2+qiwPUSk4wLt\n8oXhkhcSKMvFaCO2LPpD1+TNKv+cD85LL0SOhimhFSzfjTmpmfXMfD0lp/AHKtPH\ndEUYKTuNx3rSFCZzgQMJT2+YBR7311F/bSG0NcTzAoGAUSxE3p12Y90b4gHo6ZOj\nNVFYJgsKAQneGM0hUVxwwLaaw0IgL1Vi2CewjMhsfM6GXmRmUKiQ2Ga2y+a+esoR\nbIxi2a62x3lympgMVOjF2XxBjdFUeA4bNu+L1cEZfPLcN8QnMsEAKPFHE5gh28kc\n0ryTR7ffY26H7cP3ovqO/UY=\n-----END PRIVATE KEY-----\n",
  "client_email": "speech-to-text-service@voicebot-286620.iam.gserviceaccount.com",
  "client_id": "117294703603168912913",
  "auth_uri": "https://accounts.google.com/o/oauth2/auth",
  "token_uri": "https://oauth2.googleapis.com/token",
  "auth_provider_x509_cert_url": "https://www.googleapis.com/oauth2/v1/certs",
  "client_x509_cert_url": "https://www.googleapis.com/robot/v1/metadata/x509/speech-to-text-service%40voicebot-286620.iam.gserviceaccount.com"
}
